Practica2/p2/CPU_entrada_salida/cpu_tb.vcd
$date
	Mon May 27 20:34:47 2019
$end
$version
	Icarus Verilog
$end
$timescale
	10ps
$end
$scope module cpu_tb $end
$var reg 1 ! clk $end
$var reg 1 " reset $end
$scope module micpu $end
$var wire 1 ! clk $end
$var wire 1 " reset $end
$var wire 1 # z $end
$var wire 1 $ wez $end
$var wire 1 % we3 $end
$var wire 1 & w_push $end
$var wire 1 ' w_pop $end
$var wire 8 ( valor_puerto_rd1 [7:0] $end
$var wire 8 ) valor_leido_puerto_solo_entrada [7:0] $end
$var wire 8 * valor_leido_puerto [7:0] $end
$var wire 8 + valor_escribir_puerto_rd2 [7:0] $end
$var wire 8 , valor_escribir_puerto_inm [7:0] $end
$var wire 1 - t_int $end
$var wire 128 . salida_puertos [127:0] $end
$var wire 1 / s_stack $end
$var wire 1 0 s_puerto_inmediato $end
$var wire 1 1 s_puerto $end
$var wire 1 2 s_jal $end
$var wire 3 3 s_inm [2:0] $end
$var wire 1 4 s_inc $end
$var wire 6 5 opcode [5:0] $end
$var wire 3 6 op_alu [2:0] $end
$var wire 1 7 iret $end
$var wire 1 8 g_int $end
$var wire 4 9 direccion_puerto_solo_entrada [3:0] $end
$var wire 4 : direccion_puerto [3:0] $end
$var reg 128 ; entrada_pines [127:0] $end
$scope module caminodatos $end
$var wire 1 ! clk $end
$var wire 10 < direccion_interrupcion [9:0] $end
$var wire 4 = direccion_puerto [3:0] $end
$var wire 4 > direccion_puerto_solo_entrada [3:0] $end
$var wire 10 ? incrementa_direccion [9:0] $end
$var wire 1 " reset $end
$var wire 8 @ valor_escribir_puerto_rd2 [7:0] $end
$var wire 8 A valor_puerto_rd1 [7:0] $end
$var wire 1 B zalu $end
$var wire 1 # z $end
$var wire 1 $ wez $end
$var wire 1 % we3 $end
$var wire 8 C wd3 [7:0] $end
$var wire 4 D wa3 [3:0] $end
$var wire 1 & w_push $end
$var wire 1 ' w_pop $end
$var wire 10 E valor_pila [9:0] $end
$var wire 8 F valor_operado [7:0] $end
$var wire 8 G valor_leido_puerto_solo_entrada [7:0] $end
$var wire 8 H valor_leido_puerto [7:0] $end
$var wire 8 I valor_escribir_puerto_inm [7:0] $end
$var wire 1 - t_int $end
$var wire 1 / s_stack $end
$var wire 1 2 s_jal $end
$var wire 3 J s_inm [2:0] $end
$var wire 1 4 s_inc $end
$var wire 8 K rd2 [7:0] $end
$var wire 8 L rd1 [7:0] $end
$var wire 4 M ra2 [3:0] $end
$var wire 4 N ra1 [3:0] $end
$var wire 10 O pc_next_guardado [9:0] $end
$var wire 10 P pc_next [9:0] $end
$var wire 10 Q pc_incrementado [9:0] $end
$var wire 10 R pc_actual [9:0] $end
$var wire 6 S opcode [5:0] $end
$var wire 3 T op_alu [2:0] $end
$var wire 1 7 iret $end
$var wire 16 U instruccion [15:0] $end
$var wire 10 V escribir_pila [9:0] $end
$var wire 10 W direccion_salto [9:0] $end
$var wire 10 X direccion_iret_o_interrupcion [9:0] $end
$var wire 10 Y dir_salto [9:0] $end
$scope module banco_registros $end
$var wire 1 ! clk $end
$var wire 4 Z ra1 [3:0] $end
$var wire 4 [ ra2 [3:0] $end
$var wire 4 \ wa3 [3:0] $end
$var wire 1 % we3 $end
$var wire 8 ] wd3 [7:0] $end
$var wire 8 ^ rd2 [7:0] $end
$var wire 8 _ rd1 [7:0] $end
$upscope $end
$scope module ffz $end
$var wire 1 ! clk $end
$var wire 1 " reset $end
$var wire 1 B d $end
$var wire 1 $ carga $end
$var reg 1 # q $end
$upscope $end
$scope module memoria_programa $end
$var wire 1 ! clk $end
$var wire 16 ` rd [15:0] $end
$var wire 10 a a [9:0] $end
$upscope $end
$scope module mux_alu $end
$var wire 8 b inmediato [7:0] $end
$var wire 8 c valor_pila [7:0] $end
$var wire 3 d s [2:0] $end
$var wire 8 e puerto_leido_solo_lectura [7:0] $end
$var wire 8 f puerto_leido [7:0] $end
$var wire 8 g alu [7:0] $end
$var reg 8 h y [7:0] $end
$upscope $end
$scope module mux_pc $end
$var wire 10 i y [9:0] $end
$var wire 1 4 s $end
$var wire 10 j d1 [9:0] $end
$var wire 10 k d0 [9:0] $end
$upscope $end
$scope module mux_pc_next_guardado_o_direccion_interrupcion $end
$var wire 10 l d0 [9:0] $end
$var wire 10 m y [9:0] $end
$var wire 1 7 s $end
$var wire 10 n d1 [9:0] $end
$upscope $end
$scope module mux_salto_interrupcion $end
$var wire 10 o d0 [9:0] $end
$var wire 10 p d1 [9:0] $end
$var wire 10 q y [9:0] $end
$var wire 1 - s $end
$upscope $end
$scope module mux_salto_pila $end
$var wire 10 r d0 [9:0] $end
$var wire 10 s y [9:0] $end
$var wire 1 / s $end
$var wire 10 t d1 [9:0] $end
$upscope $end
$scope module mux_stack $end
$var wire 10 u d0 [9:0] $end
$var wire 10 v y [9:0] $end
$var wire 1 2 s $end
$var wire 10 w d1 [9:0] $end
$upscope $end
$scope module pila_lifo $end
$var wire 1 ! clk $end
$var wire 10 x escribir_pila [9:0] $end
$var wire 10 y valor_pila [9:0] $end
$var wire 1 & w_push $end
$var wire 1 ' w_pop $end
$var reg 8 z i [7:0] $end
$upscope $end
$scope module registoPC $end
$var wire 1 ! clk $end
$var wire 10 { d [9:0] $end
$var wire 1 " reset $end
$var reg 10 | q [9:0] $end
$upscope $end
$scope module registointerrupcion $end
$var wire 1 ! clk $end
$var wire 10 } d [9:0] $end
$var wire 1 - t_int $end
$var reg 10 ~ q [9:0] $end
$upscope $end
$scope module sum_pc $end
$var wire 10 !" a [9:0] $end
$var wire 10 "" b [9:0] $end
$var wire 10 #" y [9:0] $end
$upscope $end
$scope module unidad_alu $end
$var wire 8 $" a [7:0] $end
$var wire 8 %" b [7:0] $end
$var wire 8 &" y [7:0] $end
$var wire 1 B zero $end
$var wire 3 '" op_alu [2:0] $end
$var reg 8 (" s [7:0] $end
$upscope $end
$upscope $end
$scope module entrada_salida $end
$var wire 1 ! clk $end
$var wire 4 )" direccion_puerto [3:0] $end
$var wire 4 *" direccion_puerto_solo_entrada [3:0] $end
$var wire 128 +" entrada_pines [127:0] $end
$var wire 1 " reset $end
$var wire 8 ," valor_escribir_puerto_inm [7:0] $end
$var wire 8 -" valor_escribir_puerto_rd2 [7:0] $end
$var wire 8 ." valor_puerto_a_escribir [7:0] $end
$var wire 128 /" salida_puertos [127:0] $end
$var wire 1 0 s_puerto_inmediato $end
$var wire 1 1 s_puerto $end
$var wire 8 0" puerto9 [7:0] $end
$var wire 8 1" puerto8 [7:0] $end
$var wire 8 2" puerto7 [7:0] $end
$var wire 8 3" puerto6 [7:0] $end
$var wire 8 4" puerto5 [7:0] $end
$var wire 8 5" puerto4 [7:0] $end
$var wire 8 6" puerto31 [7:0] $end
$var wire 8 7" puerto30 [7:0] $end
$var wire 8 8" puerto3 [7:0] $end
$var wire 8 9" puerto29 [7:0] $end
$var wire 8 :" puerto28 [7:0] $end
$var wire 8 ;" puerto27 [7:0] $end
$var wire 8 <" puerto26 [7:0] $end
$var wire 8 =" puerto25 [7:0] $end
$var wire 8 >" puerto24 [7:0] $end
$var wire 8 ?" puerto23 [7:0] $end
$var wire 8 @" puerto22 [7:0] $end
$var wire 8 A" puerto21 [7:0] $end
$var wire 8 B" puerto20 [7:0] $end
$var wire 8 C" puerto2 [7:0] $end
$var wire 8 D" puerto19 [7:0] $end
$var wire 8 E" puerto18 [7:0] $end
$var wire 8 F" puerto17 [7:0] $end
$var wire 8 G" puerto16 [7:0] $end
$var wire 8 H" puerto15 [7:0] $end
$var wire 8 I" puerto14 [7:0] $end
$var wire 8 J" puerto13 [7:0] $end
$var wire 8 K" puerto12 [7:0] $end
$var wire 8 L" puerto11 [7:0] $end
$var wire 8 M" puerto10 [7:0] $end
$var wire 8 N" puerto1 [7:0] $end
$var wire 8 O" puerto0 [7:0] $end
$var wire 128 P" lectura_puertos_de_entrada [127:0] $end
$var reg 1 8 g_int $end
$var reg 8 Q" valor_leido_puerto [7:0] $end
$var reg 8 R" valor_leido_puerto_solo_entrada [7:0] $end
$scope module banco_puertos_16 $end
$var wire 1 ! clk $end
$var wire 4 S" direccion_puerto [3:0] $end
$var wire 1 " reset $end
$var wire 8 T" valor_puerto_a_escribir [7:0] $end
$var wire 128 U" salida_puertos [127:0] $end
$var wire 1 1 s_puerto $end
$upscope $end
$scope module banco_puertos_read_only $end
$var wire 1 ! clk $end
$var wire 128 V" entrada_pines [127:0] $end
$var wire 128 W" lectura_puertos_de_entrada [127:0] $end
$upscope $end
$scope module valor_puerto_registro_o_inmediato $end
$var wire 8 X" d0 [7:0] $end
$var wire 8 Y" d1 [7:0] $end
$var wire 8 Z" y [7:0] $end
$var wire 1 0 s $end
$upscope $end
$upscope $end
$scope module unidadcontrol $end
$var wire 4 [" direccion_puerto [3:0] $end
$var wire 1 8 g_int $end
$var wire 6 \" opcode [5:0] $end
$var wire 8 ]" rd1 [7:0] $end
$var wire 1 " reset $end
$var wire 1 # z $end
$var reg 1 ^" int_en_curso $end
$var reg 1 7 iret $end
$var reg 3 _" op_alu [2:0] $end
$var reg 1 4 s_inc $end
$var reg 3 `" s_inm [2:0] $end
$var reg 1 2 s_jal $end
$var reg 1 1 s_puerto $end
$var reg 1 0 s_puerto_inmediato $end
$var reg 1 / s_stack $end
$var reg 1 - t_int $end
$var reg 1 ' w_pop $end
$var reg 1 & w_push $end
$var reg 1 % we3 $end
$var reg 1 $ wez $end
$upscope $end
$upscope $end
$upscope $end
$enddefinitions $end
#0
$dumpvars
bx `"
bx _"
x^"
bx ]"
bx \"
bx ["
bx Z"
bx Y"
bx X"
bx W"
b0 V"
bx U"
bx T"
bx S"
bx R"
bx Q"
bx P"
bx O"
bx N"
bx M"
bx L"
bx K"
bx J"
bx I"
bx H"
bx G"
bx F"
bx E"
bx D"
bx C"
bx B"
bx A"
bx @"
bx ?"
bx >"
bx ="
bx <"
bx ;"
bx :"
bx 9"
bx 8"
bx 7"
bx 6"
bx 5"
bx 4"
bx 3"
bx 2"
bx 1"
bx 0"
bx /"
bx ."
bx -"
bx ,"
b0 +"
bx *"
bx )"
bx ("
bx '"
bx &"
bx %"
bx $"
bx #"
b1 ""
bx !"
bx ~
bx }
bx |
bx {
b0 z
bx y
bx x
bx w
bx v
b0xxxxxxxx u
bx t
bx s
bx r
bx q
bx p
bx o
bx n
bx m
b1100100000 l
bx k
bx j
bx i
bx h
bx g
bx f
bx e
bx d
bx c
bx b
bx a
bx `
bx _
bx ^
bx ]
bx \
bx [
bx Z
bx Y
bx X
bx W
bx V
bx U
bx T
bx S
bx R
bx Q
bx P
bx O
bx N
bx M
bx L
bx K
bx J
bx I
bx H
bx G
bx F
bx E
bx D
bx C
xB
bx A
bx @
b1 ?
bx >
bx =
b1100100000 <
b0 ;
bx :
bx 9
18
x7
bx 6
bx 5
x4
bx 3
x2
x1
x0
x/
bx .
x-
bx ,
bx +
bx *
bx )
bx (
x'
x&
x%
x$
x#
0"
0!
$end
#100
b0 ."
b0 T"
b0 Z"
b1 W
b1 q
b1 {
b0 C
b0 ]
b0 h
b0 +
b0 @
b0 -"
b0 X"
b0 K
b0 ^
b0 %"
b0 u
b0 (
b0 A
b0 ]"
b0 L
b0 _
b0 $"
b0 *
b0 H
b0 f
b0 Q"
b1000 Y
b1000 k
b1000 s
b1 P
b1 i
b1 o
b1 }
b0 ,
b0 I
b0 ,"
b0 Y"
b0 b
b1000 D
b1000 \
b0 9
b0 >
b0 *"
b0 M
b0 [
b0 :
b0 =
b0 )"
b0 S"
b0 ["
b0 N
b0 Z
b1000 r
b10000 5
b10000 S
b10000 \"
b1 Q
b1 j
b1 w
b1 #"
b100000000001000 U
b100000000001000 `
b0 R
b0 a
b0 |
b0 !"
0#
b1100100000 X
b1100100000 m
b1100100000 p
b0 V
b0 v
b0 x
b0 H"
b0 I"
b0 J"
b0 K"
b0 L"
b0 M"
b0 0"
b0 1"
b0 2"
b0 3"
b0 4"
b0 5"
b0 8"
b0 C"
b0 N"
b0 O"
07
02
0^"
0-
0/
0'
0&
00
01
1%
0$
b1 3
b1 J
b1 d
b1 `"
14
b0 .
b0 /"
b0 U"
08
1"
#1100
0"
#2000
b10 W
b10 q
b10 {
b1 C
b1 ]
b1 h
b0 )
b0 G
b0 e
b0 R"
b10001 Y
b10001 k
b10001 s
b0 6"
b0 7"
b0 9"
b0 :"
b0 ;"
b0 <"
b0 ="
b0 >"
b0 ?"
b0 @"
b0 A"
b0 B"
b0 D"
b0 E"
b0 F"
b0 G"
b10 P
b10 i
b10 o
b10 }
b1 ,
b1 I
b1 ,"
b1 Y"
b1 b
b1 D
b1 \
b1 9
b1 >
b1 *"
b1 M
b1 [
b10001 r
b0 P"
b0 W"
b10 Q
b10 j
b10 w
b10 #"
b100000000010001 U
b100000000010001 `
b1 R
b1 a
b1 |
b1 !"
1!
#4000
0!
#6000
b11 W
b11 q
b11 {
b10 C
b10 ]
b10 h
b100011 Y
b100011 k
b100011 s
b11 P
b11 i
b11 o
b11 }
b10 ,
b10 I
b10 ,"
b10 Y"
b10 b
b11 D
b11 \
b10 9
b10 >
b10 *"
b10 M
b10 [
b100011 r
b11 Q
b11 j
b11 w
b11 #"
b100000000100011 U
b100000000100011 `
b10 R
b10 a
b10 |
b10 !"
1!
#8000
0!
#10000
b100 W
b100 q
b100 {
b100 C
b100 ]
b100 h
b1000100 Y
b1000100 k
b1000100 s
b100 P
b100 i
b100 o
b100 }
b100 ,
b100 I
b100 ,"
b100 Y"
b100 b
b100 D
b100 \
b100 9
b100 >
b100 *"
b100 M
b100 [
b1000100 r
b100 Q
b100 j
b100 w
b100 #"
b100000001000100 U
b100000001000100 `
b11 R
b11 a
b11 |
b11 !"
1!
#12000
0!
#14000
b1 V
b1 v
b1 x
b101 W
b101 q
b101 {
b10010 C
b10010 ]
b10010 h
b1 u
b1 (
b1 A
b1 ]"
b1 L
b1 _
b1 $"
b100101110 Y
b100101110 k
b100101110 s
b101 P
b101 i
b101 o
b101 }
b10010 ,
b10010 I
b10010 ,"
b10010 Y"
b10010 b
b1110 D
b1110 \
b10 9
b10 >
b10 *"
b10 M
b10 [
b1 :
b1 =
b1 )"
b1 S"
b1 ["
b1 N
b1 Z
b100101110 r
b101 Q
b101 j
b101 w
b101 #"
b100000100101110 U
b100000100101110 `
b100 R
b100 a
b100 |
b100 !"
1!
#16000
0!
#18000
b0 V
b0 v
b0 x
b110 W
b110 q
b110 {
b0 C
b0 ]
b0 h
b0 u
b0 (
b0 A
b0 ]"
b0 L
b0 _
b0 $"
b1111 Y
b1111 k
b1111 s
b110 P
b110 i
b110 o
b110 }
b0 ,
b0 I
b0 ,"
b0 Y"
b0 b
b1111 D
b1111 \
b0 9
b0 >
b0 *"
b0 M
b0 [
b0 :
b0 =
b0 )"
b0 S"
b0 ["
b0 N
b0 Z
b1111 r
b110 Q
b110 j
b110 w
b110 #"
b100000000001111 U
b100000000001111 `
b101 R
b101 a
b101 |
b101 !"
1!
#20000
0!
#22000
0B
b1 ."
b1 T"
b1 Z"
b11111111 F
b11111111 g
b11111111 &"
b11111111 ("
b111 W
b111 q
b111 {
b11111111 C
b11111111 ]
b11111111 h
b1 +
b1 @
b1 -"
b1 X"
b1 K
b1 ^
b1 %"
b10010 Y
b10010 k
b10010 s
b0 3
b0 J
b0 d
b0 `"
1$
b11 6
b11 T
b11 '"
b11 _"
b111 P
b111 i
b111 o
b111 }
b10000001 ,
b10000001 I
b10000001 ,"
b10000001 Y"
b10000001 b
b10 D
b10 \
b1 9
b1 >
b1 *"
b1 M
b1 [
b1000 :
b1000 =
b1000 )"
b1000 S"
b1000 ["
b1000 N
b1000 Z
b10010 r
b101110 5
b101110 S
b101110 \"
b111 Q
b111 j
b111 w
b111 #"
b1011100000010010 U
b1011100000010010 `
b110 R
b110 a
b110 |
b110 !"
1!
#24000
0!
#26000
1B
b0 C
b0 ]
b0 h
b0 ."
b0 T"
b0 Z"
b0 F
b0 g
b0 &"
b0 ("
b1000 W
b1000 q
b1000 {
b0 +
b0 @
b0 -"
b0 X"
b0 K
b0 ^
b0 %"
b1001 Y
b1001 k
b1001 s
0%
0$
b1000 P
b1000 i
b1000 o
b1000 }
b10000000 ,
b10000000 I
b10000000 ,"
b10000000 Y"
b10000000 b
b1001 D
b1001 \
b0 9
b0 >
b0 *"
b0 M
b0 [
b1001 r
b10 5
b10 S
b10 \"
b1000 Q
b1000 j
b1000 w
b1000 #"
b100000001001 U
b100000001001 `
b111 R
b111 a
b111 |
b111 !"
1!
#28000
0!
#30000
0B
b100 C
b100 ]
b100 h
b100 V
b100 v
b100 x
b100 F
b100 g
b100 &"
b100 ("
b110 W
b110 q
b110 {
b100 u
b100 (
b100 A
b100 ]"
b100 L
b100 _
b100 $"
b110 Y
b110 k
b110 s
04
b110 P
b110 i
b110 o
b110 }
b1000000 ,
b1000000 I
b1000000 ,"
b1000000 Y"
b1000000 b
b110 D
b110 \
b100 :
b100 =
b100 )"
b100 S"
b100 ["
b100 N
b100 Z
b110 r
b1 5
b1 S
b1 \"
b1001 Q
b1001 j
b1001 w
b1001 #"
b10000000110 U
b10000000110 `
b1000 R
b1000 a
b1000 |
b1000 !"
1!
#32000
0!
#34000
b11111111 C
b11111111 ]
b11111111 h
b111 W
b111 q
b111 {
b1 ."
b1 T"
b1 Z"
b0 V
b0 v
b0 x
b11111111 F
b11111111 g
b11111111 &"
b11111111 ("
b111 P
b111 i
b111 o
b111 }
b1 +
b1 @
b1 -"
b1 X"
b1 K
b1 ^
b1 %"
b0 u
b0 (
b0 A
b0 ]"
b0 L
b0 _
b0 $"
b10010 Y
b10010 k
b10010 s
14
1$
1%
b10000001 ,
b10000001 I
b10000001 ,"
b10000001 Y"
b10000001 b
b10 D
b10 \
b1 9
b1 >
b1 *"
b1 M
b1 [
b1000 :
b1000 =
b1000 )"
b1000 S"
b1000 ["
b1000 N
b1000 Z
b10010 r
b101110 5
b101110 S
b101110 \"
b111 Q
b111 j
b111 w
b111 #"
b1011100000010010 U
b1011100000010010 `
b110 R
b110 a
b110 |
b110 !"
1!
#36000
0!
#38000
1B
b0 C
b0 ]
b0 h
b0 ."
b0 T"
b0 Z"
b0 F
b0 g
b0 &"
b0 ("
b1000 W
b1000 q
b1000 {
b0 +
b0 @
b0 -"
b0 X"
b0 K
b0 ^
b0 %"
b1001 Y
b1001 k
b1001 s
0%
0$
b1000 P
b1000 i
b1000 o
b1000 }
b10000000 ,
b10000000 I
b10000000 ,"
b10000000 Y"
b10000000 b
b1001 D
b1001 \
b0 9
b0 >
b0 *"
b0 M
b0 [
b1001 r
b10 5
b10 S
b10 \"
b1000 Q
b1000 j
b1000 w
b1000 #"
b100000001001 U
b100000001001 `
b111 R
b111 a
b111 |
b111 !"
1!
#39200
b1100100000 W
b1100100000 q
b1100100000 {
1-
1^"
18
b1 ;
b1 +"
b1 V"
#39300
08
#40000
0!
#42000
0B
b1 C
b1 ]
b1 h
b1 V
b1 v
b1 x
b1 F
b1 g
b1 &"
b1 ("
b1100100001 W
b1100100001 q
b1100100001 {
b1 )
b1 G
b1 e
b1 R"
b1 u
b1 (
b1 A
b1 ]"
b1 L
b1 _
b1 $"
b100000000 Y
b100000000 k
b100000000 s
0-
1&
b1 G"
b1100100001 P
b1100100001 i
b1100100001 o
b1100100001 }
b10000 ,
b10000 I
b10000 ,"
b10000 Y"
b10000 b
b0 D
b0 \
b1 :
b1 =
b1 )"
b1 S"
b1 ["
b1 N
b1 Z
b100000000 r
b1100 5
b1100 S
b1100 \"
b1000 O
b1000 n
b1000 ~
b1 P"
b1 W"
b1100100001 Q
b1100100001 j
b1100100001 w
b1100100001 #"
b11000100000000 U
b11000100000000 `
b1100100000 R
b1100100000 a
b1100100000 |
b1100100000 !"
1!
#44000
0!
#46000
b11111111 C
b11111111 ]
b11111111 h
b11111111 V
b11111111 v
b11111111 x
b11111111 F
b11111111 g
b11111111 &"
b11111111 ("
b1100100010 W
b1100100010 q
b1100100010 {
b11111111 u
b11111111 (
b11111111 A
b11111111 ]"
b11111111 L
b11111111 _
b11111111 $"
b1000000000 Y
b1000000000 k
b1000000000 s
b1100100010 P
b1100100010 i
b1100100010 o
b1100100010 }
b100000 ,
b100000 I
b100000 ,"
b100000 Y"
b100000 b
b10 :
b10 =
b10 )"
b10 S"
b10 ["
b10 N
b10 Z
b1000000000 r
b1100100010 Q
b1100100010 j
b1100100010 w
b1100100010 #"
b11001000000000 U
b11001000000000 `
b1100100001 R
b1100100001 a
b1100100001 |
b1100100001 !"
b1 c
b1 E
b1 t
b1 y
b1 z
1!
#48000
0!
#50000
b1 ."
b1 T"
b1 Z"
b0 V
b0 v
b0 x
b1100100011 W
b1100100011 q
b1100100011 {
b1 C
b1 ]
b1 h
b1 +
b1 @
b1 -"
b1 X"
b1 K
b1 ^
b1 %"
b0 )
b0 G
b0 e
b0 R"
b0 u
b0 (
b0 A
b0 ]"
b0 L
b0 _
b0 $"
b10001 Y
b10001 k
b10001 s
0&
1%
b1 3
b1 J
b1 d
b1 `"
b1100100011 P
b1100100011 i
b1100100011 o
b1100100011 }
b1 ,
b1 I
b1 ,"
b1 Y"
b1 b
b1 D
b1 \
b1 9
b1 >
b1 *"
b1 M
b1 [
b0 :
b0 =
b0 )"
b0 S"
b0 ["
b0 N
b0 Z
b10001 r
b10000 5
b10000 S
b10000 \"
b1100100011 Q
b1100100011 j
b1100100011 w
b1100100011 #"
b100000000010001 U
b100000000010001 `
b1100100010 R
b1100100010 a
b1100100010 |
b1100100010 !"
b11111111 c
b11111111 E
b11111111 t
b11111111 y
b10 z
1!
#52000
0!
#54000
b11111111 ."
b11111111 T"
b11111111 Z"
b1 F
b1 g
b1 &"
b1 ("
b1100100100 W
b1100100100 q
b1100100100 {
b1 C
b1 ]
b1 h
b11111111 +
b11111111 @
b11111111 -"
b11111111 X"
b11111111 K
b11111111 ^
b11111111 %"
b1100100110 Y
b1100100110 k
b1100100110 s
b0 3
b0 J
b0 d
b0 `"
0%
b1100100100 P
b1100100100 i
b1100100100 o
b1100100100 }
b10110010 ,
b10110010 I
b10110010 ,"
b10110010 Y"
b10110010 b
b110 D
b110 \
b10 9
b10 >
b10 *"
b10 M
b10 [
b1011 :
b1011 =
b1011 )"
b1011 S"
b1011 ["
b1011 N
b1011 Z
b1100100110 r
b10 5
b10 S
b10 \"
b1100100100 Q
b1100100100 j
b1100100100 w
b1100100100 #"
b101100100110 U
b101100100110 `
b1100100011 R
b1100100011 a
b1100100011 |
b1100100011 !"
1!
#56000
0!
#58000
1B
b0 ."
b0 T"
b0 Z"
b0 F
b0 g
b0 &"
b0 ("
b1100100101 W
b1100100101 q
b1100100101 {
b0 C
b0 ]
b0 h
b0 +
b0 @
b0 -"
b0 X"
b0 K
b0 ^
b0 %"
b1 )
b1 G
b1 e
b1 R"
b10 Y
b10 k
b10 s
1%
b1 3
b1 J
b1 d
b1 `"
b1100100101 P
b1100100101 i
b1100100101 o
b1100100101 }
b0 ,
b0 I
b0 ,"
b0 Y"
b0 b
b10 D
b10 \
b0 9
b0 >
b0 *"
b0 M
b0 [
b0 :
b0 =
b0 )"
b0 S"
b0 ["
b0 N
b0 Z
b10 r
b10000 5
b10000 S
b10000 \"
b1100100101 Q
b1100100101 j
b1100100101 w
b1100100101 #"
b100000000000010 U
b100000000000010 `
b1100100100 R
b1100100100 a
b1100100100 |
b1100100100 !"
1!
#60000
0!
#62000
b1100101000 W
b1100101000 q
b1100101000 {
b0 )
b0 G
b0 e
b0 R"
b1100101000 Y
b1100101000 k
b1100101000 s
b0 3
b0 J
b0 d
b0 `"
0%
04
b1100101000 P
b1100101000 i
b1100101000 o
b1100101000 }
b1110010 ,
b1110010 I
b1110010 ,"
b1110010 Y"
b1110010 b
b1000 D
b1000 \
b10 9
b10 >
b10 *"
b10 M
b10 [
b111 :
b111 =
b111 )"
b111 S"
b111 ["
b111 N
b111 Z
b1100101000 r
b1 5
b1 S
b1 \"
b1100100110 Q
b1100100110 j
b1100100110 w
b1100100110 #"
b11100101000 U
b11100101000 `
b1100100101 R
b1100100101 a
b1100100101 |
b1100100101 !"
1!
#64000
0!
#66000
0B
b11111111 C
b11111111 ]
b11111111 h
b1100101001 W
b1100101001 q
b1100101001 {
b1 ."
b1 T"
b1 Z"
b11111111 F
b11111111 g
b11111111 &"
b11111111 ("
b1100101001 P
b1100101001 i
b1100101001 o
b1100101001 }
b1 +
b1 @
b1 -"
b1 X"
b1 K
b1 ^
b1 %"
b11000 Y
b11000 k
b11000 s
14
1$
1%
b10000001 ,
b10000001 I
b10000001 ,"
b10000001 Y"
b10000001 b
b1 9
b1 >
b1 *"
b1 M
b1 [
b1000 :
b1000 =
b1000 )"
b1000 S"
b1000 ["
b1000 N
b1000 Z
b11000 r
b101110 5
b101110 S
b101110 \"
b1100101001 Q
b1100101001 j
b1100101001 w
b1100101001 #"
b1011100000011000 U
b1011100000011000 `
b1100101000 R
b1100101000 a
b1100101000 |
b1100101000 !"
1!
#68000
0!
#70000
1B
b0 C
b0 ]
b0 h
b0 ."
b0 T"
b0 Z"
b0 F
b0 g
b0 &"
b0 ("
b1100101010 W
b1100101010 q
b1100101010 {
b0 +
b0 @
b0 -"
b0 X"
b0 K
b0 ^
b0 %"
b1100101100 Y
b1100101100 k
b1100101100 s
0%
0$
b1100101010 P
b1100101010 i
b1100101010 o
b1100101010 }
b10110010 ,
b10110010 I
b10110010 ,"
b10110010 Y"
b10110010 b
b1100 D
b1100 \
b10 9
b10 >
b10 *"
b10 M
b10 [
b1011 :
b1011 =
b1011 )"
b1011 S"
b1011 ["
b1011 N
b1011 Z
b1100101100 r
b10 5
b10 S
b10 \"
b1100101010 Q
b1100101010 j
b1100101010 w
b1100101010 #"
b101100101100 U
b101100101100 `
b1100101001 R
b1100101001 a
b1100101001 |
b1100101001 !"
1!
#72000
0!
#74000
0B
b1 ."
b1 T"
b1 Z"
b11111111 F
b11111111 g
b11111111 &"
b11111111 ("
b1100101011 W
b1100101011 q
b1100101011 {
b1 C
b1 ]
b1 h
b1 +
b1 @
b1 -"
b1 X"
b1 K
b1 ^
b1 %"
b11000 Y
b11000 k
b11000 s
1%
b1 3
b1 J
b1 d
b1 `"
b1100101011 P
b1100101011 i
b1100101011 o
b1100101011 }
b1 ,
b1 I
b1 ,"
b1 Y"
b1 b
b1000 D
b1000 \
b1 9
b1 >
b1 *"
b1 M
b1 [
b0 :
b0 =
b0 )"
b0 S"
b0 ["
b0 N
b0 Z
b11000 r
b10000 5
b10000 S
b10000 \"
b1100101011 Q
b1100101011 j
b1100101011 w
b1100101011 #"
b100000000011000 U
b100000000011000 `
b1100101010 R
b1100101010 a
b1100101010 |
b1100101010 !"
1!
#76000
0!
#78000
1B
b0 ."
b0 T"
b0 Z"
b0 F
b0 g
b0 &"
b0 ("
b1100101110 W
b1100101110 q
b1100101110 {
b0 C
b0 ]
b0 h
b0 +
b0 @
b0 -"
b0 X"
b0 K
b0 ^
b0 %"
b1100101110 Y
b1100101110 k
b1100101110 s
b0 3
b0 J
b0 d
b0 `"
0%
04
b1100101110 P
b1100101110 i
b1100101110 o
b1100101110 }
b1110010 ,
b1110010 I
b1110010 ,"
b1110010 Y"
b1110010 b
b1110 D
b1110 \
b10 9
b10 >
b10 *"
b10 M
b10 [
b111 :
b111 =
b111 )"
b111 S"
b111 ["
b111 N
b111 Z
b1100101110 r
b1 5
b1 S
b1 \"
b1100101100 Q
b1100101100 j
b1100101100 w
b1100101100 #"
b11100101110 U
b11100101110 `
b1100101011 R
b1100101011 a
b1100101011 |
b1100101011 !"
1!
#80000
0!
#82000
0B
b1 C
b1 ]
b1 h
b1100101111 W
b1100101111 q
b1100101111 {
b1 V
b1 v
b1 x
b1 F
b1 g
b1 &"
b1 ("
b1100101111 P
b1100101111 i
b1100101111 o
b1100101111 }
b1 )
b1 G
b1 e
b1 R"
b1 u
b1 (
b1 A
b1 ]"
b1 L
b1 _
b1 $"
b0 Y
b0 k
b0 s
14
b10000000 ,
b10000000 I
b10000000 ,"
b10000000 Y"
b10000000 b
b0 D
b0 \
b0 9
b0 >
b0 *"
b0 M
b0 [
b1000 :
b1000 =
b1000 )"
b1000 S"
b1000 ["
b1000 N
b1000 Z
b0 r
b1010 5
b1010 S
b1010 \"
b1100101111 Q
b1100101111 j
b1100101111 w
b1100101111 #"
b10100000000000 U
b10100000000000 `
b1100101110 R
b1100101110 a
b1100101110 |
b1100101110 !"
1!
#84000
0!
#86000
1B
b0 C
b0 ]
b0 h
b0 V
b0 v
b0 x
b0 F
b0 g
b0 &"
b0 ("
b1100110000 W
b1100110000 q
b1100110000 {
b0 u
b0 (
b0 A
b0 ]"
b0 L
b0 _
b0 $"
1$
1%
b1100110000 P
b1100110000 i
b1100110000 o
b1100110000 }
b0 ,
b0 I
b0 ,"
b0 Y"
b0 b
b0 :
b0 =
b0 )"
b0 S"
b0 ["
b0 N
b0 Z
b101100 5
b101100 S
b101100 \"
b1100110000 Q
b1100110000 j
b1100110000 w
b1100110000 #"
b1011000000000000 U
b1011000000000000 `
b1100101111 R
b1100101111 a
b1100101111 |
b1100101111 !"
1!
#88000
0!
#90000
b1100110001 W
b1100110001 q
b1100110001 {
b1100000000 Y
b1100000000 k
b1100000000 s
0%
0$
b1100110001 P
b1100110001 i
b1100110001 o
b1100110001 }
b11110000 ,
b11110000 I
b11110000 ,"
b11110000 Y"
b11110000 b
b1111 :
b1111 =
b1111 )"
b1111 S"
b1111 ["
b1111 N
b1111 Z
b1100000000 r
b1011 5
b1011 S
b1011 \"
1#
b1100110001 Q
b1100110001 j
b1100110001 w
b1100110001 #"
b10111100000000 U
b10111100000000 `
b1100110000 R
b1100110000 a
b1100110000 |
b1100110000 !"
1!
#92000
0!
