Practica1/v2/alu.vcd
$date
	Mon Oct 21 09:41:23 2019
$end
$version
	Icarus Verilog
$end
$timescale
	10ps
$end
$scope module alu_tb $end
$var wire 1 ! t_c $end
$var wire 1 " t_z $end
$var wire 1 # t_s $end
$var wire 4 $ t_R [3:0] $end
$var reg 4 % t_A [3:0] $end
$var reg 4 & t_B [3:0] $end
$var reg 1 ' t_L $end
$var reg 2 ( t_Op [1:0] $end
$var integer 32 ) errores [31:0] $end
$scope module mat $end
$var wire 4 * A [3:0] $end
$var wire 2 + ALUOp [1:0] $end
$var wire 4 , B [3:0] $end
$var wire 1 - Cin0 $end
$var wire 1 . Cout0 $end
$var wire 1 / Cout1 $end
$var wire 1 0 Cout2 $end
$var wire 1 ' L $end
$var wire 1 ! carry $end
$var wire 1 1 cpl $end
$var wire 1 2 op1_A $end
$var wire 1 3 op2_B $end
$var wire 1 " zero $end
$var wire 1 4 z $end
$var wire 1 5 y $end
$var wire 1 6 x $end
$var wire 1 # sign $end
$var wire 4 7 R [3:0] $end
$var wire 4 8 OP2_ANTES_COMPLEMENTO1 [3:0] $end
$var wire 4 9 OP2 [3:0] $end
$var wire 4 : OP1 [3:0] $end
$scope module cal0 $end
$var wire 1 ; a $end
$var wire 1 < b $end
$var wire 1 - c_in $end
$var wire 1 . c_out $end
$var wire 1 ' l $end
$var wire 2 = s [1:0] $end
$var wire 1 > out_fa $end
$var wire 1 ? out_cl $end
$var wire 1 @ out $end
$var wire 1 A cout $end
$scope module cl1 $end
$var wire 1 ; a $end
$var wire 1 < b $end
$var wire 1 B outand $end
$var wire 1 C outnot $end
$var wire 1 D outor $end
$var wire 1 E outxor $end
$var wire 2 F s [1:0] $end
$var wire 1 ? out $end
$scope module muxcl $end
$var wire 1 B a $end
$var wire 1 D b $end
$var wire 1 E c $end
$var wire 1 C d $end
$var wire 2 G s [1:0] $end
$var reg 1 ? out $end
$upscope $end
$upscope $end
$scope module fa1 $end
$var wire 1 ; a $end
$var wire 1 < b $end
$var wire 1 - cin $end
$var wire 1 > sum $end
$var wire 1 A cout $end
$upscope $end
$scope module mux_fa_o_cl $end
$var wire 1 > a $end
$var wire 1 ? b $end
$var wire 1 ' s $end
$var wire 1 @ out $end
$upscope $end
$upscope $end
$scope module cal1 $end
$var wire 1 H a $end
$var wire 1 I b $end
$var wire 1 . c_in $end
$var wire 1 / c_out $end
$var wire 1 ' l $end
$var wire 2 J s [1:0] $end
$var wire 1 K out_fa $end
$var wire 1 L out_cl $end
$var wire 1 M out $end
$var wire 1 N cout $end
$scope module cl1 $end
$var wire 1 H a $end
$var wire 1 I b $end
$var wire 1 O outand $end
$var wire 1 P outnot $end
$var wire 1 Q outor $end
$var wire 1 R outxor $end
$var wire 2 S s [1:0] $end
$var wire 1 L out $end
$scope module muxcl $end
$var wire 1 O a $end
$var wire 1 Q b $end
$var wire 1 R c $end
$var wire 1 P d $end
$var wire 2 T s [1:0] $end
$var reg 1 L out $end
$upscope $end
$upscope $end
$scope module fa1 $end
$var wire 1 H a $end
$var wire 1 I b $end
$var wire 1 . cin $end
$var wire 1 K sum $end
$var wire 1 N cout $end
$upscope $end
$scope module mux_fa_o_cl $end
$var wire 1 K a $end
$var wire 1 L b $end
$var wire 1 ' s $end
$var wire 1 M out $end
$upscope $end
$upscope $end
$scope module cal2 $end
$var wire 1 U a $end
$var wire 1 V b $end
$var wire 1 / c_in $end
$var wire 1 0 c_out $end
$var wire 1 ' l $end
$var wire 2 W s [1:0] $end
$var wire 1 X out_fa $end
$var wire 1 Y out_cl $end
$var wire 1 Z out $end
$var wire 1 [ cout $end
$scope module cl1 $end
$var wire 1 U a $end
$var wire 1 V b $end
$var wire 1 \ outand $end
$var wire 1 ] outnot $end
$var wire 1 ^ outor $end
$var wire 1 _ outxor $end
$var wire 2 ` s [1:0] $end
$var wire 1 Y out $end
$scope module muxcl $end
$var wire 1 \ a $end
$var wire 1 ^ b $end
$var wire 1 _ c $end
$var wire 1 ] d $end
$var wire 2 a s [1:0] $end
$var reg 1 Y out $end
$upscope $end
$upscope $end
$scope module fa1 $end
$var wire 1 U a $end
$var wire 1 V b $end
$var wire 1 / cin $end
$var wire 1 X sum $end
$var wire 1 [ cout $end
$upscope $end
$scope module mux_fa_o_cl $end
$var wire 1 X a $end
$var wire 1 Y b $end
$var wire 1 ' s $end
$var wire 1 Z out $end
$upscope $end
$upscope $end
$scope module cal3 $end
$var wire 1 b a $end
$var wire 1 c b $end
$var wire 1 0 c_in $end
$var wire 1 ! c_out $end
$var wire 1 ' l $end
$var wire 2 d s [1:0] $end
$var wire 1 e out_fa $end
$var wire 1 f out_cl $end
$var wire 1 g out $end
$var wire 1 h cout $end
$scope module cl1 $end
$var wire 1 b a $end
$var wire 1 c b $end
$var wire 1 i outand $end
$var wire 1 j outnot $end
$var wire 1 k outor $end
$var wire 1 l outxor $end
$var wire 2 m s [1:0] $end
$var wire 1 f out $end
$scope module muxcl $end
$var wire 1 i a $end
$var wire 1 k b $end
$var wire 1 l c $end
$var wire 1 j d $end
$var wire 2 n s [1:0] $end
$var reg 1 f out $end
$upscope $end
$upscope $end
$scope module fa1 $end
$var wire 1 b a $end
$var wire 1 c b $end
$var wire 1 0 cin $end
$var wire 1 e sum $end
$var wire 1 h cout $end
$upscope $end
$scope module mux_fa_o_cl $end
$var wire 1 e a $end
$var wire 1 f b $end
$var wire 1 ' s $end
$var wire 1 g out $end
$upscope $end
$upscope $end
$scope module complemento1 $end
$var wire 1 1 cpl $end
$var wire 4 o sal [3:0] $end
$var wire 4 p ent [3:0] $end
$upscope $end
$scope module mux_op1_A $end
$var wire 4 q a [3:0] $end
$var wire 4 r b [3:0] $end
$var wire 1 2 s $end
$var wire 4 s out [3:0] $end
$upscope $end
$scope module mux_op2_B $end
$var wire 4 t a [3:0] $end
$var wire 4 u b [3:0] $end
$var wire 1 3 s $end
$var wire 4 v out [3:0] $end
$upscope $end
$upscope $end
$scope task check $end
$var reg 1 w flag_carry $end
$var reg 1 x flag_sign $end
$var reg 1 y flag_zero $end
$var reg 5 z result [4:0] $end
$upscope $end
$upscope $end
$enddefinitions $end
#0
$dumpvars
bx z
xy
xx
xw
b0 v
b0 u
b0 t
b0 s
b0 r
b0 q
b0 p
b1111 o
b0 n
b0 m
1l
1k
1j
0i
xh
xg
0f
xe
b0 d
1c
0b
b0 a
b0 `
1_
1^
1]
0\
x[
xZ
0Y
xX
b0 W
1V
0U
b0 T
b0 S
1R
1Q
1P
0O
xN
xM
0L
xK
b0 J
1I
0H
b0 G
b0 F
1E
1D
1C
0B
1A
0@
0?
0>
b0 =
1<
0;
b0 :
b1111 9
b0 8
bx0 7
06
05
04
13
02
11
z0
z/
z.
1-
b0 ,
b0 +
b0 *
b0 )
b0 (
0'
b0 &
b0 %
bx0 $
x#
x"
z!
$end
#200
0"
bx1 $
bx1 7
1@
0D
0E
1>
0A
0<
b1110 9
b1110 o
b1 8
b1 p
b1 v
b1 &
b1 ,
b1 u
1y
0x
1w
b10000 z
#400
x"
bx0 $
bx0 7
0@
0Q
0R
1D
1E
0>
1A
0I
1<
b1101 9
b1101 o
b10 8
b10 p
b10 v
b10 &
b10 ,
b10 u
0y
1x
0w
b1111 z
#600
0"
bx1 $
bx1 7
1@
0D
0E
1>
0A
0<
b1100 9
b1100 o
b11 8
b11 p
b11 v
b11 &
b11 ,
b11 u
b1110 z
#800
x"
bx0 $
bx0 7
0@
0^
0_
1Q
1R
1D
1E
0>
1A
0V
1I
1<
b1011 9
b1011 o
b100 8
b100 p
b100 v
b100 &
b100 ,
b100 u
b1101 z
#1000
0"
bx1 $
bx1 7
1@
0D
0E
1>
0A
0<
b1010 9
b1010 o
b101 8
b101 p
b101 v
b101 &
b101 ,
b101 u
b1100 z
#1200
x"
bx0 $
bx0 7
0@
0Q
0R
1D
1E
0>
1A
0I
1<
b1001 9
b1001 o
b110 8
b110 p
b110 v
b110 &
b110 ,
b110 u
b1011 z
#1400
0"
bx1 $
bx1 7
1@
0D
0E
1>
0A
0<
b1000 9
b1000 o
b111 8
b111 p
b111 v
b111 &
b111 ,
b111 u
b1010 z
#1600
x"
bx0 $
bx0 7
0@
0k
0l
1^
1_
1Q
1R
1D
1E
0>
1A
0c
1V
1I
1<
b111 9
b111 o
b1000 8
b1000 p
b1000 v
b1000 &
b1000 ,
b1000 u
b1001 z
#1800
0"
bx1 $
bx1 7
1@
0D
0E
1>
0A
0<
b110 9
b110 o
b1001 8
b1001 p
b1001 v
b1001 &
b1001 ,
b1001 u
b1000 z
#2000
x"
bx0 $
bx0 7
0@
0Q
0R
1D
1E
0>
1A
0I
1<
b101 9
b101 o
b1010 8
b1010 p
b1010 v
b1010 &
b1010 ,
b1010 u
0x
b111 z
#2200
0"
bx1 $
bx1 7
1@
0D
0E
1>
0A
0<
b100 9
b100 o
b1011 8
b1011 p
b1011 v
b1011 &
b1011 ,
b1011 u
b110 z
#2400
x"
bx0 $
bx0 7
0@
0^
0_
1Q
1R
1D
1E
0>
1A
0V
1I
1<
b11 9
b11 o
b1100 8
b1100 p
b1100 v
b1100 &
b1100 ,
b1100 u
b101 z
#2600
0"
bx1 $
bx1 7
1@
0D
0E
1>
0A
0<
b10 9
b10 o
b1101 8
b1101 p
b1101 v
b1101 &
b1101 ,
b1101 u
b100 z
#2800
x"
bx0 $
bx0 7
0@
0Q
0R
1D
1E
0>
1A
0I
1<
b1 9
b1 o
b1110 8
b1110 p
b1110 v
b1110 &
b1110 ,
b1110 u
b11 z
#3000
0"
bx1 $
bx1 7
1@
0D
0E
1>
0A
0<
b0 9
b0 o
b1111 8
b1111 p
b1111 v
b1111 &
b1111 ,
b1111 u
b10 z
#3200
x"
bx0 $
bx0 7
0@
1k
1l
1^
1_
1Q
1R
1D
1E
0>
1A
1c
1V
1I
1<
b1111 9
b1111 o
b0 8
b0 p
b0 v
b1 %
b1 *
b1 r
b1 t
b0 &
b0 ,
b0 u
b1 z
#3400
0"
bx1 $
bx1 7
1@
0D
0E
1>
0A
0<
b1110 9
b1110 o
b1 8
b1 p
b1 v
b1 &
b1 ,
b1 u
1y
1w
b10000 z
#3600
x"
bx0 $
bx0 7
0@
0Q
0R
1D
1E
0>
1A
0I
1<
b1101 9
b1101 o
b10 8
b10 p
b10 v
b10 &
b10 ,
b10 u
0y
1x
0w
b1111 z
#3800
0"
bx1 $
bx1 7
1@
0D
0E
1>
0A
0<
b1100 9
b1100 o
b11 8
b11 p
b11 v
b11 &
b11 ,
b11 u
b1110 z
#4000
x"
bx0 $
bx0 7
0@
0^
0_
1Q
1R
1D
1E
0>
1A
0V
1I
1<
b1011 9
b1011 o
b100 8
b100 p
b100 v
b100 &
b100 ,
b100 u
b1101 z
#4200
0"
bx1 $
bx1 7
1@
0D
0E
1>
0A
0<
b1010 9
b1010 o
b101 8
b101 p
b101 v
b101 &
b101 ,
b101 u
b1100 z
#4400
x"
bx0 $
bx0 7
0@
0Q
0R
1D
1E
0>
1A
0I
1<
b1001 9
b1001 o
b110 8
b110 p
b110 v
b110 &
b110 ,
b110 u
b1011 z
#4600
0"
bx1 $
bx1 7
1@
0D
0E
1>
0A
0<
b1000 9
b1000 o
b111 8
b111 p
b111 v
b111 &
b111 ,
b111 u
b1010 z
#4800
x"
bx0 $
bx0 7
0@
0k
0l
1^
1_
1Q
1R
1D
1E
0>
1A
0c
1V
1I
1<
b111 9
b111 o
b1000 8
b1000 p
b1000 v
b1000 &
b1000 ,
b1000 u
b1001 z
#5000
0"
bx1 $
bx1 7
1@
0D
0E
1>
0A
0<
b110 9
b110 o
b1001 8
b1001 p
b1001 v
b1001 &
b1001 ,
b1001 u
b1000 z
#5200
x"
bx0 $
bx0 7
0@
0Q
0R
1D
1E
0>
1A
0I
1<
b101 9
b101 o
b1010 8
b1010 p
b1010 v
b1010 &
b1010 ,
b1010 u
0x
b111 z
#5400
0"
bx1 $
bx1 7
1@
0D
0E
1>
0A
0<
b100 9
b100 o
b1011 8
b1011 p
b1011 v
b1011 &
b1011 ,
b1011 u
b110 z
#5600
x"
bx0 $
bx0 7
0@
0^
0_
1Q
1R
1D
1E
0>
1A
0V
1I
1<
b11 9
b11 o
b1100 8
b1100 p
b1100 v
b1100 &
b1100 ,
b1100 u
b101 z
#5800
0"
bx1 $
bx1 7
1@
0D
0E
1>
0A
0<
b10 9
b10 o
b1101 8
b1101 p
b1101 v
b1101 &
b1101 ,
b1101 u
b100 z
#6000
x"
bx0 $
bx0 7
0@
0Q
0R
1D
1E
0>
1A
0I
1<
b1 9
b1 o
b1110 8
b1110 p
b1110 v
b1110 &
b1110 ,
b1110 u
b11 z
#6200
0"
bx1 $
bx1 7
1@
0D
0E
1>
0A
0<
b0 9
b0 o
b1111 8
b1111 p
b1111 v
b1111 &
b1111 ,
b1111 u
b10 z
#6400
x"
bx0 $
bx0 7
0@
1k
1l
1^
1_
1Q
1R
1D
1E
0>
1A
1c
1V
1I
1<
b1111 9
b1111 o
b0 8
b0 p
b0 v
b10 %
b10 *
b10 r
b10 t
b0 &
b0 ,
b0 u
b1 z
#6600
0"
bx1 $
bx1 7
1@
0D
0E
1>
0A
0<
b1110 9
b1110 o
b1 8
b1 p
b1 v
b1 &
b1 ,
b1 u
1y
1w
b10000 z
#6800
x"
bx0 $
bx0 7
0@
0Q
0R
1D
1E
0>
1A
0I
1<
b1101 9
b1101 o
b10 8
b10 p
b10 v
b10 &
b10 ,
b10 u
0y
1x
0w
b1111 z
#7000
0"
bx1 $
bx1 7
1@
0D
0E
1>
0A
0<
b1100 9
b1100 o
b11 8
b11 p
b11 v
b11 &
b11 ,
b11 u
b1110 z
#7200
x"
bx0 $
bx0 7
0@
0^
0_
1Q
1R
1D
1E
0>
1A
0V
1I
1<
b1011 9
b1011 o
b100 8
b100 p
b100 v
b100 &
b100 ,
b100 u
b1101 z
#7400
0"
bx1 $
bx1 7
1@
0D
0E
1>
0A
0<
b1010 9
b1010 o
b101 8
b101 p
b101 v
b101 &
b101 ,
b101 u
b1100 z
#7600
x"
bx0 $
bx0 7
0@
0Q
0R
1D
1E
0>
1A
0I
1<
b1001 9
b1001 o
b110 8
b110 p
b110 v
b110 &
b110 ,
b110 u
b1011 z
#7800
0"
bx1 $
bx1 7
1@
0D
0E
1>
0A
0<
b1000 9
b1000 o
b111 8
b111 p
b111 v
b111 &
b111 ,
b111 u
b1010 z
#8000
x"
bx0 $
bx0 7
0@
0k
0l
1^
1_
1Q
1R
1D
1E
0>
1A
0c
1V
1I
1<
b111 9
b111 o
b1000 8
b1000 p
b1000 v
b1000 &
b1000 ,
b1000 u
b1001 z
#8200
0"
bx1 $
bx1 7
1@
0D
0E
1>
0A
0<
b110 9
b110 o
b1001 8
b1001 p
b1001 v
b1001 &
b1001 ,
b1001 u
b1000 z
#8400
x"
bx0 $
bx0 7
0@
0Q
0R
1D
1E
0>
1A
0I
1<
b101 9
b101 o
b1010 8
b1010 p
b1010 v
b1010 &
b1010 ,
b1010 u
0x
b111 z
#8600
0"
bx1 $
bx1 7
1@
0D
0E
1>
0A
0<
b100 9
b100 o
b1011 8
b1011 p
b1011 v
b1011 &
b1011 ,
b1011 u
b110 z
#8800
x"
bx0 $
bx0 7
0@
0^
0_
1Q
1R
1D
1E
0>
1A
0V
1I
1<
b11 9
b11 o
b1100 8
b1100 p
b1100 v
b1100 &
b1100 ,
b1100 u
b101 z
#9000
0"
bx1 $
bx1 7
1@
0D
0E
1>
0A
0<
b10 9
b10 o
b1101 8
b1101 p
b1101 v
b1101 &
b1101 ,
b1101 u
b100 z
#9200
x"
bx0 $
bx0 7
0@
0Q
0R
1D
1E
0>
1A
0I
1<
b1 9
b1 o
b1110 8
b1110 p
b1110 v
b1110 &
b1110 ,
b1110 u
b11 z
#9400
0"
bx1 $
bx1 7
1@
0D
0E
1>
0A
0<
b0 9
b0 o
b1111 8
b1111 p
b1111 v
b1111 &
b1111 ,
b1111 u
b10 z
#9600
x"
bx0 $
bx0 7
0@
1k
1l
1^
1_
1Q
1R
1D
1E
0>
1A
1c
1V
1I
1<
b1111 9
b1111 o
b0 8
b0 p
b0 v
b11 %
b11 *
b11 r
b11 t
b0 &
b0 ,
b0 u
b1 z
#9800
0"
bx1 $
bx1 7
1@
0D
0E
1>
0A
0<
b1110 9
b1110 o
b1 8
b1 p
b1 v
b1 &
b1 ,
b1 u
1y
1w
b10000 z
#10000
x"
bx0 $
bx0 7
0@
0Q
0R
1D
1E
0>
1A
0I
1<
b1101 9
b1101 o
b10 8
b10 p
b10 v
b10 &
b10 ,
b10 u
0y
1x
0w
b1111 z
#10200
0"
bx1 $
bx1 7
1@
0D
0E
1>
0A
0<
b1100 9
b1100 o
b11 8
b11 p
b11 v
b11 &
b11 ,
b11 u
b1110 z
#10400
x"
bx0 $
bx0 7
0@
0^
0_
1Q
1R
1D
1E
0>
1A
0V
1I
1<
b1011 9
b1011 o
b100 8
b100 p
b100 v
b100 &
b100 ,
b100 u
b1101 z
#10600
0"
bx1 $
bx1 7
1@
0D
0E
1>
0A
0<
b1010 9
b1010 o
b101 8
b101 p
b101 v
b101 &
b101 ,
b101 u
b1100 z
#10800
x"
bx0 $
bx0 7
0@
0Q
0R
1D
1E
0>
1A
0I
1<
b1001 9
b1001 o
b110 8
b110 p
b110 v
b110 &
b110 ,
b110 u
b1011 z
#11000
0"
bx1 $
bx1 7
1@
0D
0E
1>
0A
0<
b1000 9
b1000 o
b111 8
b111 p
b111 v
b111 &
b111 ,
b111 u
b1010 z
#11200
x"
bx0 $
bx0 7
0@
0k
0l
1^
1_
1Q
1R
1D
1E
0>
1A
0c
1V
1I
1<
b111 9
b111 o
b1000 8
b1000 p
b1000 v
b1000 &
b1000 ,
b1000 u
b1001 z
#11400
0"
bx1 $
bx1 7
1@
0D
0E
1>
0A
0<
b110 9
b110 o
b1001 8
b1001 p
b1001 v
b1001 &
b1001 ,
b1001 u
b1000 z
#11600
x"
bx0 $
bx0 7
0@
0Q
0R
1D
1E
0>
1A
0I
1<
b101 9
b101 o
b1010 8
b1010 p
b1010 v
b1010 &
b1010 ,
b1010 u
0x
b111 z
#11800
0"
bx1 $
bx1 7
1@
0D
0E
1>
0A
0<
b100 9
b100 o
b1011 8
b1011 p
b1011 v
b1011 &
b1011 ,
b1011 u
b110 z
#12000
x"
bx0 $
bx0 7
0@
0^
0_
1Q
1R
1D
1E
0>
1A
0V
1I
1<
b11 9
b11 o
b1100 8
b1100 p
b1100 v
b1100 &
b1100 ,
b1100 u
b101 z
#12200
0"
bx1 $
bx1 7
1@
0D
0E
1>
0A
0<
b10 9
b10 o
b1101 8
b1101 p
b1101 v
b1101 &
b1101 ,
b1101 u
b100 z
#12400
x"
bx0 $
bx0 7
0@
0Q
0R
1D
1E
0>
1A
0I
1<
b1 9
b1 o
b1110 8
b1110 p
b1110 v
b1110 &
b1110 ,
b1110 u
b11 z
#12600
0"
bx1 $
bx1 7
1@
0D
0E
1>
0A
0<
b0 9
b0 o
b1111 8
b1111 p
b1111 v
b1111 &
b1111 ,
b1111 u
b10 z
#12800
x"
bx0 $
bx0 7
0@
1k
1l
1^
1_
1Q
1R
1D
1E
0>
1A
1c
1V
1I
1<
b1111 9
b1111 o
b0 8
b0 p
b0 v
b100 %
b100 *
b100 r
b100 t
b0 &
b0 ,
b0 u
b1 z
#13000
0"
bx1 $
bx1 7
1@
0D
0E
1>
0A
0<
b1110 9
b1110 o
b1 8
b1 p
b1 v
b1 &
b1 ,
b1 u
1y
1w
b10000 z
#13200
x"
bx0 $
bx0 7
0@
0Q
0R
1D
1E
0>
1A
0I
1<
b1101 9
b1101 o
b10 8
b10 p
b10 v
b10 &
b10 ,
b10 u
0y
1x
0w
b1111 z
#13400
0"
bx1 $
bx1 7
1@
0D
0E
1>
0A
0<
b1100 9
b1100 o
b11 8
b11 p
b11 v
b11 &
b11 ,
b11 u
b1110 z
#13600
x"
bx0 $
bx0 7
0@
0^
0_
1Q
1R
1D
1E
0>
1A
0V
1I
1<
b1011 9
b1011 o
b100 8
b100 p
b100 v
b100 &
b100 ,
b100 u
b1101 z
#13800
0"
bx1 $
bx1 7
1@
0D
0E
1>
0A
0<
b1010 9
b1010 o
b101 8
b101 p
b101 v
b101 &
b101 ,
b101 u
b1100 z
#14000
x"
bx0 $
bx0 7
0@
0Q
0R
1D
1E
0>
1A
0I
1<
b1001 9
b1001 o
b110 8
b110 p
b110 v
b110 &
b110 ,
b110 u
b1011 z
#14200
0"
bx1 $
bx1 7
1@
0D
0E
1>
0A
0<
b1000 9
b1000 o
b111 8
b111 p
b111 v
b111 &
b111 ,
b111 u
b1010 z
#14400
x"
bx0 $
bx0 7
0@
0k
0l
1^
1_
1Q
1R
1D
1E
0>
1A
0c
1V
1I
1<
b111 9
b111 o
b1000 8
b1000 p
b1000 v
b1000 &
b1000 ,
b1000 u
b1001 z
#14600
0"
bx1 $
bx1 7
1@
0D
0E
1>
0A
0<
b110 9
b110 o
b1001 8
b1001 p
b1001 v
b1001 &
b1001 ,
b1001 u
b1000 z
#14800
x"
bx0 $
bx0 7
0@
0Q
0R
1D
1E
0>
1A
0I
1<
b101 9
b101 o
b1010 8
b1010 p
b1010 v
b1010 &
b1010 ,
b1010 u
0x
b111 z
#15000
0"
bx1 $
bx1 7
1@
0D
0E
1>
0A
0<
b100 9
b100 o
b1011 8
b1011 p
b1011 v
b1011 &
b1011 ,
b1011 u
b110 z
#15200
x"
bx0 $
bx0 7
0@
0^
0_
1Q
1R
1D
1E
0>
1A
0V
1I
1<
b11 9
b11 o
b1100 8
b1100 p
b1100 v
b1100 &
b1100 ,
b1100 u
b101 z
#15400
0"
bx1 $
bx1 7
1@
0D
0E
1>
0A
0<
b10 9
b10 o
b1101 8
b1101 p
b1101 v
b1101 &
b1101 ,
b1101 u
b100 z
#15600
x"
bx0 $
bx0 7
0@
0Q
0R
1D
1E
0>
1A
0I
1<
b1 9
b1 o
b1110 8
b1110 p
b1110 v
b1110 &
b1110 ,
b1110 u
b11 z
#15800
0"
bx1 $
bx1 7
1@
0D
0E
1>
0A
0<
b0 9
b0 o
b1111 8
b1111 p
b1111 v
b1111 &
b1111 ,
b1111 u
b10 z
#16000
x"
bx0 $
bx0 7
0@
1k
1l
1^
1_
1Q
1R
1D
1E
0>
1A
1c
1V
1I
1<
b1111 9
b1111 o
b0 8
b0 p
b0 v
b101 %
b101 *
b101 r
b101 t
b0 &
b0 ,
b0 u
b1 z
#16200
0"
bx1 $
bx1 7
1@
0D
0E
1>
0A
0<
b1110 9
b1110 o
b1 8
b1 p
b1 v
b1 &
b1 ,
b1 u
1y
1w
b10000 z
#16400
x"
bx0 $
bx0 7
0@
0Q
0R
1D
1E
0>
1A
0I
1<
b1101 9
b1101 o
b10 8
b10 p
b10 v
b10 &
b10 ,
b10 u
0y
1x
0w
b1111 z
#16600
0"
bx1 $
bx1 7
1@
0D
0E
1>
0A
0<
b1100 9
b1100 o
b11 8
b11 p
b11 v
b11 &
b11 ,
b11 u
b1110 z
#16800
x"
bx0 $
bx0 7
0@
0^
0_
1Q
1R
1D
1E
0>
1A
0V
1I
1<
b1011 9
b1011 o
b100 8
b100 p
b100 v
b100 &
b100 ,
b100 u
b1101 z
#17000
0"
bx1 $
bx1 7
1@
0D
0E
1>
0A
0<
b1010 9
b1010 o
b101 8
b101 p
b101 v
b101 &
b101 ,
b101 u
b1100 z
#17200
x"
bx0 $
bx0 7
0@
0Q
0R
1D
1E
0>
1A
0I
1<
b1001 9
b1001 o
b110 8
b110 p
b110 v
b110 &
b110 ,
b110 u
b1011 z
#17400
0"
bx1 $
bx1 7
1@
0D
0E
1>
0A
0<
b1000 9
b1000 o
b111 8
b111 p
b111 v
b111 &
b111 ,
b111 u
b1010 z
#17600
x"
bx0 $
bx0 7
0@
0k
0l
1^
1_
1Q
1R
1D
1E
0>
1A
0c
1V
1I
1<
b111 9
b111 o
b1000 8
b1000 p
b1000 v
b1000 &
b1000 ,
b1000 u
b1001 z
#17800
0"
bx1 $
bx1 7
1@
0D
0E
1>
0A
0<
b110 9
b110 o
b1001 8
b1001 p
b1001 v
b1001 &
b1001 ,
b1001 u
b1000 z
#18000
x"
bx0 $
bx0 7
0@
0Q
0R
1D
1E
0>
1A
0I
1<
b101 9
b101 o
b1010 8
b1010 p
b1010 v
b1010 &
b1010 ,
b1010 u
0x
b111 z
#18200
0"
bx1 $
bx1 7
1@
0D
0E
1>
0A
0<
b100 9
b100 o
b1011 8
b1011 p
b1011 v
b1011 &
b1011 ,
b1011 u
b110 z
#18400
x"
bx0 $
bx0 7
0@
0^
0_
1Q
1R
1D
1E
0>
1A
0V
1I
1<
b11 9
b11 o
b1100 8
b1100 p
b1100 v
b1100 &
b1100 ,
b1100 u
b101 z
#18600
0"
bx1 $
bx1 7
1@
0D
0E
1>
0A
0<
b10 9
b10 o
b1101 8
b1101 p
b1101 v
b1101 &
b1101 ,
b1101 u
b100 z
#18800
x"
bx0 $
bx0 7
0@
0Q
0R
1D
1E
0>
1A
0I
1<
b1 9
b1 o
b1110 8
b1110 p
b1110 v
b1110 &
b1110 ,
b1110 u
b11 z
#19000
0"
bx1 $
bx1 7
1@
0D
0E
1>
0A
0<
b0 9
b0 o
b1111 8
b1111 p
b1111 v
b1111 &
b1111 ,
b1111 u
b10 z
#19200
x"
bx0 $
bx0 7
0@
1k
1l
1^
1_
1Q
1R
1D
1E
0>
1A
1c
1V
1I
1<
b1111 9
b1111 o
b0 8
b0 p
b0 v
b110 %
b110 *
b110 r
b110 t
b0 &
b0 ,
b0 u
b1 z
#19400
0"
bx1 $
bx1 7
1@
0D
0E
1>
0A
0<
b1110 9
b1110 o
b1 8
b1 p
b1 v
b1 &
b1 ,
b1 u
1y
1w
b10000 z
#19600
x"
bx0 $
bx0 7
0@
0Q
0R
1D
1E
0>
1A
0I
1<
b1101 9
b1101 o
b10 8
b10 p
b10 v
b10 &
b10 ,
b10 u
0y
1x
0w
b1111 z
#19800
0"
bx1 $
bx1 7
1@
0D
0E
1>
0A
0<
b1100 9
b1100 o
b11 8
b11 p
b11 v
b11 &
b11 ,
b11 u
b1110 z
#20000
x"
bx0 $
bx0 7
0@
0^
0_
1Q
1R
1D
1E
0>
1A
0V
1I
1<
b1011 9
b1011 o
b100 8
b100 p
b100 v
b100 &
b100 ,
b100 u
b1101 z
#20200
0"
bx1 $
bx1 7
1@
0D
0E
1>
0A
0<
b1010 9
b1010 o
b101 8
b101 p
b101 v
b101 &
b101 ,
b101 u
b1100 z
#20400
x"
bx0 $
bx0 7
0@
0Q
0R
1D
1E
0>
1A
0I
1<
b1001 9
b1001 o
b110 8
b110 p
b110 v
b110 &
b110 ,
b110 u
b1011 z
#20600
0"
bx1 $
bx1 7
1@
0D
0E
1>
0A
0<
b1000 9
b1000 o
b111 8
b111 p
b111 v
b111 &
b111 ,
b111 u
b1010 z
#20800
x"
bx0 $
bx0 7
0@
0k
0l
1^
1_
1Q
1R
1D
1E
0>
1A
0c
1V
1I
1<
b111 9
b111 o
b1000 8
b1000 p
b1000 v
b1000 &
b1000 ,
b1000 u
b1001 z
#21000
0"
bx1 $
bx1 7
1@
0D
0E
1>
0A
0<
b110 9
b110 o
b1001 8
b1001 p
b1001 v
b1001 &
b1001 ,
b1001 u
b1000 z
#21200
x"
bx0 $
bx0 7
0@
0Q
0R
1D
1E
0>
1A
0I
1<
b101 9
b101 o
b1010 8
b1010 p
b1010 v
b1010 &
b1010 ,
b1010 u
0x
b111 z
#21400
0"
bx1 $
bx1 7
1@
0D
0E
1>
0A
0<
b100 9
b100 o
b1011 8
b1011 p
b1011 v
b1011 &
b1011 ,
b1011 u
b110 z
#21600
x"
bx0 $
bx0 7
0@
0^
0_
1Q
1R
1D
1E
0>
1A
0V
1I
1<
b11 9
b11 o
b1100 8
b1100 p
b1100 v
b1100 &
b1100 ,
b1100 u
b101 z
#21800
0"
bx1 $
bx1 7
1@
0D
0E
1>
0A
0<
b10 9
b10 o
b1101 8
b1101 p
b1101 v
b1101 &
b1101 ,
b1101 u
b100 z
#22000
x"
bx0 $
bx0 7
0@
0Q
0R
1D
1E
0>
1A
0I
1<
b1 9
b1 o
b1110 8
b1110 p
b1110 v
b1110 &
b1110 ,
b1110 u
b11 z
#22200
0"
bx1 $
bx1 7
1@
0D
0E
1>
0A
0<
b0 9
b0 o
b1111 8
b1111 p
b1111 v
b1111 &
b1111 ,
b1111 u
b10 z
#22400
x"
bx0 $
bx0 7
0@
1k
1l
1^
1_
1Q
1R
1D
1E
0>
1A
1c
1V
1I
1<
b1111 9
b1111 o
b0 8
b0 p
b0 v
b111 %
b111 *
b111 r
b111 t
b0 &
b0 ,
b0 u
b1 z
#22600
0"
bx1 $
bx1 7
1@
0D
0E
1>
0A
0<
b1110 9
b1110 o
b1 8
b1 p
b1 v
b1 &
b1 ,
b1 u
1y
1w
b10000 z
#22800
x"
bx0 $
bx0 7
0@
0Q
0R
1D
1E
0>
1A
0I
1<
b1101 9
b1101 o
b10 8
b10 p
b10 v
b10 &
b10 ,
b10 u
0y
1x
0w
b1111 z
#23000
0"
bx1 $
bx1 7
1@
0D
0E
1>
0A
0<
b1100 9
b1100 o
b11 8
b11 p
b11 v
b11 &
b11 ,
b11 u
b1110 z
#23200
x"
bx0 $
bx0 7
0@
0^
0_
1Q
1R
1D
1E
0>
1A
0V
1I
1<
b1011 9
b1011 o
b100 8
b100 p
b100 v
b100 &
b100 ,
b100 u
b1101 z
#23400
0"
bx1 $
bx1 7
1@
0D
0E
1>
0A
0<
b1010 9
b1010 o
b101 8
b101 p
b101 v
b101 &
b101 ,
b101 u
b1100 z
