Practica2/p2/CPU_sin_ampliaciones/cpu_tb.vcd
$date
	Fri Apr 12 11:46:08 2019
$end
$version
	Icarus Verilog
$end
$timescale
	10ps
$end
$scope module cpu_tb $end
$var reg 1 ! clk $end
$var reg 1 " reset $end
$scope module micpu $end
$var wire 1 ! clk $end
$var wire 1 " reset $end
$var wire 1 # z $end
$var wire 1 $ wez $end
$var wire 1 % we3 $end
$var wire 1 & s_inm $end
$var wire 1 ' s_inc $end
$var wire 6 ( opcode [5:0] $end
$var wire 3 ) op_alu [2:0] $end
$scope module caminodatos $end
$var wire 1 ! clk $end
$var wire 10 * incrementa_direccion [9:0] $end
$var wire 1 " reset $end
$var wire 1 + zalu $end
$var wire 1 # z $end
$var wire 1 $ wez $end
$var wire 1 % we3 $end
$var wire 8 , wd3 [7:0] $end
$var wire 4 - wa3 [3:0] $end
$var wire 8 . valor_operado [7:0] $end
$var wire 1 & s_inm $end
$var wire 1 ' s_inc $end
$var wire 8 / rd2 [7:0] $end
$var wire 8 0 rd1 [7:0] $end
$var wire 4 1 ra2 [3:0] $end
$var wire 4 2 ra1 [3:0] $end
$var wire 10 3 pc_next [9:0] $end
$var wire 10 4 pc_incrementado [9:0] $end
$var wire 10 5 pc_actual [9:0] $end
$var wire 6 6 opcode [5:0] $end
$var wire 3 7 op_alu [2:0] $end
$var wire 16 8 instruccion [15:0] $end
$scope module banco_registros $end
$var wire 1 ! clk $end
$var wire 4 9 ra1 [3:0] $end
$var wire 4 : ra2 [3:0] $end
$var wire 4 ; wa3 [3:0] $end
$var wire 1 % we3 $end
$var wire 8 < wd3 [7:0] $end
$var wire 8 = rd2 [7:0] $end
$var wire 8 > rd1 [7:0] $end
$upscope $end
$scope module ffz $end
$var wire 1 ! clk $end
$var wire 1 " reset $end
$var wire 1 + d $end
$var wire 1 $ carga $end
$var reg 1 # q $end
$upscope $end
$scope module memoria_programa $end
$var wire 1 ! clk $end
$var wire 16 ? rd [15:0] $end
$var wire 10 @ a [9:0] $end
$upscope $end
$scope module mux_alu $end
$var wire 8 A d1 [7:0] $end
$var wire 8 B y [7:0] $end
$var wire 1 & s $end
$var wire 8 C d0 [7:0] $end
$upscope $end
$scope module mux_pc $end
$var wire 10 D d0 [9:0] $end
$var wire 10 E y [9:0] $end
$var wire 1 ' s $end
$var wire 10 F d1 [9:0] $end
$upscope $end
$scope module registoPC $end
$var wire 1 ! clk $end
$var wire 10 G d [9:0] $end
$var wire 1 " reset $end
$var reg 10 H q [9:0] $end
$upscope $end
$scope module sum_pc $end
$var wire 10 I a [9:0] $end
$var wire 10 J b [9:0] $end
$var wire 10 K y [9:0] $end
$upscope $end
$scope module unidad_alu $end
$var wire 8 L a [7:0] $end
$var wire 8 M b [7:0] $end
$var wire 8 N y [7:0] $end
$var wire 1 + zero $end
$var wire 3 O op_alu [2:0] $end
$var reg 8 P s [7:0] $end
$upscope $end
$upscope $end
$scope module unidadcontrol $end
$var wire 6 Q opcode [5:0] $end
$var wire 1 # z $end
$var wire 1 $ wez $end
$var wire 1 % we3 $end
$var wire 1 & s_inm $end
$var wire 1 ' s_inc $end
$var wire 3 R op_alu [2:0] $end
$upscope $end
$upscope $end
$upscope $end
$enddefinitions $end
#0
$dumpvars
bx R
bx Q
bx P
bx O
bx N
bx M
bx L
bx K
b1 J
bx I
bx H
bx G
bx F
bx E
bx D
bx C
bx B
bx A
bx @
bx ?
bx >
bx =
bx <
bx ;
bx :
bx 9
bx 8
bx 7
bx 6
bx 5
bx 4
bx 3
bx 2
bx 1
bx 0
bx /
bx .
bx -
bx ,
x+
b1 *
bx )
bx (
x'
x&
x%
x$
x#
0"
0!
$end
#100
1+
b1010 ,
b1010 <
b1010 B
b0 .
b0 C
b0 N
b0 P
1%
0$
1'
1&
b0 )
b0 7
b0 O
b0 R
b0 /
b0 =
b0 M
b0 0
b0 >
b0 L
b1 3
b1 E
b1 G
b1010 A
b1 -
b1 ;
b1010 1
b1010 :
b0 2
b0 9
b10100001 D
b10000 (
b10000 6
b10000 Q
b1 4
b1 F
b1 K
b100000010100001 8
b100000010100001 ?
b0 5
b0 @
b0 H
b0 I
0#
1"
#1100
0"
#3000
b1 ,
b1 <
b1 B
b1010 /
b1010 =
b1010 M
b10 3
b10 E
b10 G
b1 A
b10 -
b10 ;
b1 1
b1 :
b10010 D
b10 4
b10 F
b10 K
b100000000010010 8
b100000000010010 ?
b1 5
b1 @
b1 H
b1 I
1!
#6000
0!
#9000
b0 ,
b0 <
b0 B
b0 /
b0 =
b0 M
b11 3
b11 E
b11 G
b0 A
b101 -
b101 ;
b0 1
b0 :
b101 D
b11 4
b11 F
b11 K
b100000000000101 8
b100000000000101 ?
b10 5
b10 @
b10 H
b10 I
1!
#12000
0!
#15000
0+
b1 .
b1 C
b1 N
b1 P
1$
0&
b10 )
b10 7
b10 O
b10 R
b1 ,
b1 <
b1 B
b1 /
b1 =
b1 M
b100 3
b100 E
b100 G
b1010010 A
b10 1
b10 :
b101 2
b101 9
b100100101 D
b101001 (
b101001 6
b101001 Q
b100 4
b100 F
b100 K
b1010010100100101 8
b1010010100100101 ?
b11 5
b11 @
b11 H
b11 I
1!
#18000
0!
#21000
b11110111 ,
b11110111 <
b11110111 B
b11 )
b11 7
b11 O
b11 R
b11110111 .
b11110111 C
b11110111 N
b11110111 P
b1010 /
b1010 =
b1010 M
b1 0
b1 >
b1 L
b101 3
b101 E
b101 G
b1010001 A
b110 -
b110 ;
b1 1
b1 :
b100010110 D
b101101 (
b101101 6
b101101 Q
b101 4
b101 F
b101 K
b1011010100010110 8
b1011010100010110 ?
b100 5
b100 @
b100 H
b100 I
1!
#24000
0!
#27000
0%
0'
0$
1+
b0 ,
b0 <
b0 B
b0 .
b0 C
b0 N
b0 P
b0 )
b0 7
b0 O
b0 R
b0 /
b0 =
b0 M
b0 0
b0 >
b0 L
b11 3
b11 E
b11 G
b1000000 A
b11 -
b11 ;
b0 1
b0 :
b100 2
b100 9
b11 D
b1 (
b1 6
b1 Q
b110 4
b110 F
b110 K
b10000000011 8
b10000000011 ?
b101 5
b101 @
b101 H
b101 I
1!
#30000
0!
#33000
1%
1'
1$
0+
b10 ,
b10 <
b10 B
b10 )
b10 7
b10 O
b10 R
b10 .
b10 C
b10 N
b10 P
b1 /
b1 =
b1 M
b1 0
b1 >
b1 L
b100 3
b100 E
b100 G
b1010010 A
b101 -
b101 ;
b10 1
b10 :
b101 2
b101 9
b100100101 D
b101001 (
b101001 6
b101001 Q
b100 4
b100 F
b100 K
b1010010100100101 8
b1010010100100101 ?
b11 5
b11 @
b11 H
b11 I
1!
#36000
0!
#39000
b11111000 ,
b11111000 <
b11111000 B
b11 )
b11 7
b11 O
b11 R
b11111000 .
b11111000 C
b11111000 N
b11111000 P
b1010 /
b1010 =
b1010 M
b10 0
b10 >
b10 L
b101 3
b101 E
b101 G
b1010001 A
b110 -
b110 ;
b1 1
b1 :
b100010110 D
b101101 (
b101101 6
b101101 Q
b101 4
b101 F
b101 K
b1011010100010110 8
b1011010100010110 ?
b100 5
b100 @
b100 H
b100 I
1!
#42000
0!
#45000
0%
0'
0$
1+
b0 ,
b0 <
b0 B
b0 .
b0 C
b0 N
b0 P
b0 )
b0 7
b0 O
b0 R
b0 /
b0 =
b0 M
b0 0
b0 >
b0 L
b11 3
b11 E
b11 G
b1000000 A
b11 -
b11 ;
b0 1
b0 :
b100 2
b100 9
b11 D
b1 (
b1 6
b1 Q
b110 4
b110 F
b110 K
b10000000011 8
b10000000011 ?
b101 5
b101 @
b101 H
b101 I
1!
#48000
0!
#51000
1%
1'
1$
0+
b11 ,
b11 <
b11 B
b10 )
b10 7
b10 O
b10 R
b11 .
b11 C
b11 N
b11 P
b1 /
b1 =
b1 M
b10 0
b10 >
b10 L
b100 3
b100 E
b100 G
b1010010 A
b101 -
b101 ;
b10 1
b10 :
b101 2
b101 9
b100100101 D
b101001 (
b101001 6
b101001 Q
b100 4
b100 F
b100 K
b1010010100100101 8
b1010010100100101 ?
b11 5
b11 @
b11 H
b11 I
1!
#54000
0!
#57000
b11111001 ,
b11111001 <
b11111001 B
b11 )
b11 7
b11 O
b11 R
b11111001 .
b11111001 C
b11111001 N
b11111001 P
b1010 /
b1010 =
b1010 M
b11 0
b11 >
b11 L
b101 3
b101 E
b101 G
b1010001 A
b110 -
b110 ;
b1 1
b1 :
b100010110 D
b101101 (
b101101 6
b101101 Q
b101 4
b101 F
b101 K
b1011010100010110 8
b1011010100010110 ?
b100 5
b100 @
b100 H
b100 I
1!
#60000
0!
#63000
0%
0'
0$
1+
b0 ,
b0 <
b0 B
b0 .
b0 C
b0 N
b0 P
b0 )
b0 7
b0 O
b0 R
b0 /
b0 =
b0 M
b0 0
b0 >
b0 L
b11 3
b11 E
b11 G
b1000000 A
b11 -
b11 ;
b0 1
b0 :
b100 2
b100 9
b11 D
b1 (
b1 6
b1 Q
b110 4
b110 F
b110 K
b10000000011 8
b10000000011 ?
b101 5
b101 @
b101 H
b101 I
1!
#66000
0!
#69000
1%
1'
1$
0+
b100 ,
b100 <
b100 B
b10 )
b10 7
b10 O
b10 R
b100 .
b100 C
b100 N
b100 P
b1 /
b1 =
b1 M
b11 0
b11 >
b11 L
b100 3
b100 E
b100 G
b1010010 A
b101 -
b101 ;
b10 1
b10 :
b101 2
b101 9
b100100101 D
b101001 (
b101001 6
b101001 Q
b100 4
b100 F
b100 K
b1010010100100101 8
b1010010100100101 ?
b11 5
b11 @
b11 H
b11 I
1!
#72000
0!
#75000
b11111010 ,
b11111010 <
b11111010 B
b11 )
b11 7
b11 O
b11 R
b11111010 .
b11111010 C
b11111010 N
b11111010 P
b1010 /
b1010 =
b1010 M
b100 0
b100 >
b100 L
b101 3
b101 E
b101 G
b1010001 A
b110 -
b110 ;
b1 1
b1 :
b100010110 D
b101101 (
b101101 6
b101101 Q
b101 4
b101 F
b101 K
b1011010100010110 8
b1011010100010110 ?
b100 5
b100 @
b100 H
b100 I
1!
#78000
0!
#81000
0%
0'
0$
1+
b0 ,
b0 <
b0 B
b0 .
b0 C
b0 N
b0 P
b0 )
b0 7
b0 O
b0 R
b0 /
b0 =
b0 M
b0 0
b0 >
b0 L
b11 3
b11 E
b11 G
b1000000 A
b11 -
b11 ;
b0 1
b0 :
b100 2
b100 9
b11 D
b1 (
b1 6
b1 Q
b110 4
b110 F
b110 K
b10000000011 8
b10000000011 ?
b101 5
b101 @
b101 H
b101 I
1!
#84000
0!
#87000
1%
1'
1$
0+
b101 ,
b101 <
b101 B
b10 )
b10 7
b10 O
b10 R
b101 .
b101 C
b101 N
b101 P
b1 /
b1 =
b1 M
b100 0
b100 >
b100 L
b100 3
b100 E
b100 G
b1010010 A
b101 -
b101 ;
b10 1
b10 :
b101 2
b101 9
b100100101 D
b101001 (
b101001 6
b101001 Q
b100 4
b100 F
b100 K
b1010010100100101 8
b1010010100100101 ?
b11 5
b11 @
b11 H
b11 I
1!
#90000
0!
#93000
b11111011 ,
b11111011 <
b11111011 B
b11 )
b11 7
b11 O
b11 R
b11111011 .
b11111011 C
b11111011 N
b11111011 P
b1010 /
b1010 =
b1010 M
b101 0
b101 >
b101 L
b101 3
b101 E
b101 G
b1010001 A
b110 -
b110 ;
b1 1
b1 :
b100010110 D
b101101 (
b101101 6
b101101 Q
b101 4
b101 F
b101 K
b1011010100010110 8
b1011010100010110 ?
b100 5
b100 @
b100 H
b100 I
1!
#96000
0!
#99000
0%
0'
0$
1+
b0 ,
b0 <
b0 B
b0 .
b0 C
b0 N
b0 P
b0 )
b0 7
b0 O
b0 R
b0 /
b0 =
b0 M
b0 0
b0 >
b0 L
b11 3
b11 E
b11 G
b1000000 A
b11 -
b11 ;
b0 1
b0 :
b100 2
b100 9
b11 D
b1 (
b1 6
b1 Q
b110 4
b110 F
b110 K
b10000000011 8
b10000000011 ?
b101 5
b101 @
b101 H
b101 I
1!
#102000
0!
#105000
1%
1'
1$
0+
b110 ,
b110 <
b110 B
b10 )
b10 7
b10 O
b10 R
b110 .
b110 C
b110 N
b110 P
b1 /
b1 =
b1 M
b101 0
b101 >
b101 L
b100 3
b100 E
b100 G
b1010010 A
b101 -
b101 ;
b10 1
b10 :
b101 2
b101 9
b100100101 D
b101001 (
b101001 6
b101001 Q
b100 4
b100 F
b100 K
b1010010100100101 8
b1010010100100101 ?
b11 5
b11 @
b11 H
b11 I
1!
#108000
0!
#111000
b11111100 ,
b11111100 <
b11111100 B
b11 )
b11 7
b11 O
b11 R
b11111100 .
b11111100 C
b11111100 N
b11111100 P
b1010 /
b1010 =
b1010 M
b110 0
b110 >
b110 L
b101 3
b101 E
b101 G
b1010001 A
b110 -
b110 ;
b1 1
b1 :
b100010110 D
b101101 (
b101101 6
b101101 Q
b101 4
b101 F
b101 K
b1011010100010110 8
b1011010100010110 ?
b100 5
b100 @
b100 H
b100 I
1!
#114000
0!
#117000
0%
0'
0$
1+
b0 ,
b0 <
b0 B
b0 .
b0 C
b0 N
b0 P
b0 )
b0 7
b0 O
b0 R
b0 /
b0 =
b0 M
b0 0
b0 >
b0 L
b11 3
b11 E
b11 G
b1000000 A
b11 -
b11 ;
b0 1
b0 :
b100 2
b100 9
b11 D
b1 (
b1 6
b1 Q
b110 4
b110 F
b110 K
b10000000011 8
b10000000011 ?
b101 5
b101 @
b101 H
b101 I
1!
#120000
0!
#123000
1%
1'
1$
0+
b111 ,
b111 <
b111 B
b10 )
b10 7
b10 O
b10 R
b111 .
b111 C
b111 N
b111 P
b1 /
b1 =
b1 M
b110 0
b110 >
b110 L
b100 3
b100 E
b100 G
b1010010 A
b101 -
b101 ;
b10 1
b10 :
b101 2
b101 9
b100100101 D
b101001 (
b101001 6
b101001 Q
b100 4
b100 F
b100 K
b1010010100100101 8
b1010010100100101 ?
b11 5
b11 @
b11 H
b11 I
1!
#126000
0!
#129000
b11111101 ,
b11111101 <
b11111101 B
b11 )
b11 7
b11 O
b11 R
b11111101 .
b11111101 C
b11111101 N
b11111101 P
b1010 /
b1010 =
b1010 M
b111 0
b111 >
b111 L
b101 3
b101 E
b101 G
b1010001 A
b110 -
b110 ;
b1 1
b1 :
b100010110 D
b101101 (
b101101 6
b101101 Q
b101 4
b101 F
b101 K
b1011010100010110 8
b1011010100010110 ?
b100 5
b100 @
b100 H
b100 I
1!
#132000
0!
#135000
0%
0'
0$
1+
b0 ,
b0 <
b0 B
b0 .
b0 C
b0 N
b0 P
b0 )
b0 7
b0 O
b0 R
b0 /
b0 =
b0 M
b0 0
b0 >
b0 L
b11 3
b11 E
b11 G
b1000000 A
b11 -
b11 ;
b0 1
b0 :
b100 2
b100 9
b11 D
b1 (
b1 6
b1 Q
b110 4
b110 F
b110 K
b10000000011 8
b10000000011 ?
b101 5
b101 @
b101 H
b101 I
1!
#138000
0!
#141000
1%
1'
1$
0+
b1000 ,
b1000 <
b1000 B
b10 )
b10 7
b10 O
b10 R
b1000 .
b1000 C
b1000 N
b1000 P
b1 /
b1 =
b1 M
b111 0
b111 >
b111 L
b100 3
b100 E
b100 G
b1010010 A
b101 -
b101 ;
b10 1
b10 :
b101 2
b101 9
b100100101 D
b101001 (
b101001 6
b101001 Q
b100 4
b100 F
b100 K
b1010010100100101 8
b1010010100100101 ?
b11 5
b11 @
b11 H
b11 I
1!
#144000
0!
#147000
b11111110 ,
b11111110 <
b11111110 B
b11 )
b11 7
b11 O
b11 R
b11111110 .
b11111110 C
b11111110 N
b11111110 P
b1010 /
b1010 =
b1010 M
b1000 0
b1000 >
b1000 L
b101 3
b101 E
b101 G
b1010001 A
b110 -
b110 ;
b1 1
b1 :
b100010110 D
b101101 (
b101101 6
b101101 Q
b101 4
b101 F
b101 K
b1011010100010110 8
b1011010100010110 ?
b100 5
b100 @
b100 H
b100 I
1!
#150000
0!
#153000
0%
0'
0$
1+
b0 ,
b0 <
b0 B
b0 .
b0 C
b0 N
b0 P
b0 )
b0 7
b0 O
b0 R
b0 /
b0 =
b0 M
b0 0
b0 >
b0 L
b11 3
b11 E
b11 G
b1000000 A
b11 -
b11 ;
b0 1
b0 :
b100 2
b100 9
b11 D
b1 (
b1 6
b1 Q
b110 4
b110 F
b110 K
b10000000011 8
b10000000011 ?
b101 5
b101 @
b101 H
b101 I
1!
#156000
0!
#159000
1%
1'
1$
0+
b1001 ,
b1001 <
b1001 B
b10 )
b10 7
b10 O
b10 R
b1001 .
b1001 C
b1001 N
b1001 P
b1 /
b1 =
b1 M
b1000 0
b1000 >
b1000 L
b100 3
b100 E
b100 G
b1010010 A
b101 -
b101 ;
b10 1
b10 :
b101 2
b101 9
b100100101 D
b101001 (
b101001 6
b101001 Q
b100 4
b100 F
b100 K
b1010010100100101 8
b1010010100100101 ?
b11 5
b11 @
b11 H
b11 I
1!
#162000
0!
#165000
b11111111 ,
b11111111 <
b11111111 B
b11 )
b11 7
b11 O
b11 R
b11111111 .
b11111111 C
b11111111 N
b11111111 P
b1010 /
b1010 =
b1010 M
b1001 0
b1001 >
b1001 L
b101 3
b101 E
b101 G
b1010001 A
b110 -
b110 ;
b1 1
b1 :
b100010110 D
b101101 (
b101101 6
b101101 Q
b101 4
b101 F
b101 K
b1011010100010110 8
b1011010100010110 ?
b100 5
b100 @
b100 H
b100 I
1!
#168000
0!
#171000
0%
0'
0$
1+
b0 ,
b0 <
b0 B
b0 .
b0 C
b0 N
b0 P
b0 )
b0 7
b0 O
b0 R
b0 /
b0 =
b0 M
b0 0
b0 >
b0 L
b11 3
b11 E
b11 G
b1000000 A
b11 -
b11 ;
b0 1
b0 :
b100 2
b100 9
b11 D
b1 (
b1 6
b1 Q
b110 4
b110 F
b110 K
b10000000011 8
b10000000011 ?
b101 5
b101 @
b101 H
b101 I
1!
#174000
0!
#177000
1%
1'
1$
0+
b1010 ,
b1010 <
b1010 B
b10 )
b10 7
b10 O
b10 R
b1010 .
b1010 C
b1010 N
b1010 P
b1 /
b1 =
b1 M
b1001 0
b1001 >
b1001 L
b100 3
b100 E
b100 G
b1010010 A
b101 -
b101 ;
b10 1
b10 :
b101 2
b101 9
b100100101 D
b101001 (
b101001 6
b101001 Q
b100 4
b100 F
b100 K
b1010010100100101 8
b1010010100100101 ?
b11 5
b11 @
b11 H
b11 I
1!
